{
    "page": 2,
    "per_page": 6,
    "total": 12,
    "total_pages": 2,
    "data": [
        {
            "id": 1,
            "email": "sukant@reqres.in",
            "first_name": "Michael",
            "last_name": "Lawson"
        },
        {
            "id": 2,
            "email": "joanna@reqres.in",
            "first_name": "Lindsay",
            "last_name": "Ferguson"
        },
        {
            "id": 3,
            "email": "lllllll@reqres.in",
            "first_name": "Tobias",
            "last_name": "Funke"
        },
        {
            "id": 4,
            "email": "byron@reqres.in",
            "first_name": "Byron",
            "last_name": "Fields"
        },
        {
            "id": 5,
            "email": "georg@reqres.in",
            "first_name": "George",
            "last_name": "Edwards"
        },
        {
            "id": 12,
            "email": "rachel.howell@reqres.in",
            "first_name": "Rachel",
            "last_name": "Howell"
        }
    ],
    "support": {
        "url": "https://reqres.in/#support-heading",
        "text": "To keep towards server costs are appreciated!"
    }
}